kuusisto.de: DIY Covid-19-Dashboard mit R und Shiny
…
landdata <- landdata_raw %>%
        # Daten 'rotieren', Spaltennamen in 'Datum' und Werte in 'Infizierte' speichern
        pivot_longer(-Bundesland, names_to = "Datum", values_to = "Infizierte") %>% 
        # Das Datum richtig formatieren und leere Zeilen entfernen
        mutate(Datum = as_date(Datum, tz = "Europe/Berlin", format = "%e.%m.")) %>% 
                drop_na()

# Mit Bevölkerungsdaten ergänzen: 
landdata <- left_join(landdata, bevoelk, "Bundesland")

landdata

# A tibble: 368 x 4
   Bundesland          Datum      Infizierte Bevoelkerung
   <chr>               <date>          <dbl>        <dbl>
 1 Nordrhein-Westfalen 2020-03-08        484     17932651
 2 Nordrhein-Westfalen 2020-03-09        545     17932651
 3 Nordrhein-Westfalen 2020-03-10        641     17932651
 4 Nordrhein-Westfalen 2020-03-11        801     17932651
 5 Nordrhein-Westfalen 2020-03-12       1182     17932651
 6 Nordrhein-Westfalen 2020-03-13       1618     17932651
 7 Nordrhein-Westfalen 2020-03-14       2027     17932651
 8 Nordrhein-Westfalen 2020-03-15       2557     17932651
 9 Nordrhein-Westfalen 2020-03-16       3104     17932651
10 Nordrhein-Westfalen 2020-03-17       3976     17932651
# … with 358 more rows
…
