kuusisto.de: Datenverarbeitung mit R
…
Figure 1: Screenshot der Excel-Datei

Die Abbildung 1 zeigt das Hauptproblem: die Zeilen an sich sind weder zu einem Bundesland noch zum Semester eindeutig zuordenbar, da diese nur als Überschriften vorhanden sind. Darüber hinaus bestehen die Namen der Spalten aus mehreren Zellen. Versuchen wir diese in R einfach so einzulesen, sieht das Ergebnis nicht so vielversprechend aus:

library(readxl)
erster_versuch <- read_excel("_data/studienrende_gesundheit.xlsx")

erster_versuch

# A tibble: 1,708 x 11
   `Studierende: B… ...2  ...3  ...4  ...5  ...6  ...7  ...8  ...9 
   <chr>            <chr> <chr> <chr> <chr> <chr> <chr> <chr> <chr>
 1 "Statistik der … <NA>  <NA>  <NA>  <NA>  <NA>  <NA>  <NA>  <NA> 
 2 "Studierende (A… <NA>  <NA>  <NA>  <NA>  <NA>  <NA>  <NA>  <NA> 
 3 "Semester\nBund… <NA>  Deut… <NA>  <NA>  Ausl… <NA>  <NA>  Insg…
 4  <NA>            <NA>  männ… weib… Insg… männ… weib… Insg… männ…
 5 "WS 1998/99"     <NA>  <NA>  <NA>  <NA>  <NA>  <NA>  <NA>  <NA> 
 6 "Baden-Württemb… <NA>  <NA>  <NA>  <NA>  <NA>  <NA>  <NA>  <NA> 
 7 "SF195"          Gesu… -     -     -     -     -     -     -    
 8 "SF232"          Gesu… -     -     -     -     -     -     -    
 9 "SF233"          Nich… -     -     -     -     -     -     -    
10 "SF234"          Pfle… -     -     -     -     -     -     -    
# … with 1,698 more rows, and 2 more variables: ...10 <chr>,
#   ...11 <chr>
…
zweiter_versuch <- read_excel("_data/studienrende_gesundheit.xlsx",
                  # SDie palten benennen
                  col_names = c("SemBund", "Studiengang",
                               "Dt_m", "Dt_f",
                               "DtGesamt", "Aus_m",
                               "Aus_f", "AusGesamt",
                               "m","f", "Gesamt"),
                  # Die ersten fünf Zeilen überspringen
                  skip = 5,
                  # Fehlende Daten vereinheitlichen
                  na = c("-", ""))

zweiter_versuch

# A tibble: 1,704 x 11
   SemBund Studiengang  Dt_m  Dt_f DtGesamt Aus_m Aus_f AusGesamt
   <chr>   <chr>       <dbl> <dbl>    <dbl> <dbl> <dbl>     <dbl>
 1 WS 199… <NA>           NA    NA       NA    NA    NA        NA
 2 Baden-… <NA>           NA    NA       NA    NA    NA        NA
 3 SF195   Gesundheit…    NA    NA       NA    NA    NA        NA
 4 SF232   Gesundheit…    NA    NA       NA    NA    NA        NA
 5 SF233   Nichtärztl…    NA    NA       NA    NA    NA        NA
 6 SF234   Pflegewiss…    NA    NA       NA    NA    NA        NA
 7 Bayern  <NA>           NA    NA       NA    NA    NA        NA
 8 SF195   Gesundheit…    NA    NA       NA    NA    NA        NA
 9 SF232   Gesundheit…    NA    NA       NA    NA    NA        NA
10 SF233   Nichtärztl…    NA    NA       NA    NA    NA        NA
# … with 1,694 more rows, and 3 more variables: m <dbl>, f <dbl>,
#   Gesamt <dbl>
…
Jetzt haben die Spalten zwar etwas kryptische Namen, aber sie folgen einer einheitlichen Logik und beschreiben den Inhalt der Spalten. Die nächste Herausforderung ist die Spalte SemBund. Sie birgt nämlich drei Verschiedene Informationen: das Semester, das Bundesland und einen Code des Studienfaches. Da die Kodierungen keine zusätzlichen Informationen enthalten, können diese eigentlich auch entfernt werden. Das Wichtigste ist als Nächstes die Zeilen eindeutig zu einem Semester und Bundesland zuzuordnen. Ich persönlich nutze dafür am Liebsten die Werkzeuge aus dem tidyverse-Metapaketen (Wickham et al. 2019) und lade diese daher auf. Damit muss ich die einzelnen Paketen (u.a. dplyr, stringr und ggplot2) nicht separat laden, wenn ich sie später brauche.

library(tidyverse)

plot_data <- zweiter_versuch %>% 
  # wenn SemBund mit 'WS' beginnt -> Inhalt in Semester kopieren
  mutate(Semester = if_else(str_detect(SemBund, "^WS"), SemBund, NULL),
  # wenn SemBund NICHT mit 'WS' oder 'SF' beginnt -> Inhalt in Bundesland kopieren
         Bundesland = if_else(!str_detect(SemBund, "^WS|^SF"), SemBund, NULL)) %>% 
  # die neuen Spalten als erstes anzeigen
  select(Semester, Bundesland, everything())

plot_data

# A tibble: 1,704 x 13
   Semester Bundesland SemBund Studiengang  Dt_m  Dt_f DtGesamt Aus_m
   <chr>    <chr>      <chr>   <chr>       <dbl> <dbl>    <dbl> <dbl>
 1 WS 1998… <NA>       WS 199… <NA>           NA    NA       NA    NA
 2 <NA>     Baden-Wür… Baden-… <NA>           NA    NA       NA    NA
 3 <NA>     <NA>       SF195   Gesundheit…    NA    NA       NA    NA
 4 <NA>     <NA>       SF232   Gesundheit…    NA    NA       NA    NA
 5 <NA>     <NA>       SF233   Nichtärztl…    NA    NA       NA    NA
 6 <NA>     <NA>       SF234   Pflegewiss…    NA    NA       NA    NA
 7 <NA>     Bayern     Bayern  <NA>           NA    NA       NA    NA
 8 <NA>     <NA>       SF195   Gesundheit…    NA    NA       NA    NA
 9 <NA>     <NA>       SF232   Gesundheit…    NA    NA       NA    NA
10 <NA>     <NA>       SF233   Nichtärztl…    NA    NA       NA    NA
# … with 1,694 more rows, and 5 more variables: Aus_f <dbl>,
#   AusGesamt <dbl>, m <dbl>, f <dbl>, Gesamt <dbl>

Nun hat jede Variable ihren eigenen Platz gefunden. Die Spalte SemBund ist damit überflüssig geworden und kann aus den Daten gestrichen werden. Es ist für die weitere Bearbeitung auch einfacher, wenn das Semester auf das Jahr reduziert wird. Darüber hinaus sollen die Semester und Bundesland-Spalten von oben nach unten “befüllt” werden, damit diese Informationen in jeder Zeile vorhanden sind. Da mich eigentlich nur die Gesamtzahl der Studierenden interessiert, können auch die Spalten mit Nationalität entfernt werden.

plot_data <- plot_data %>% 
  # Semester an nicht alphanumerischen Zeichen in drei neue Spalten teilen
  separate(Semester, c("Prefix", "Jahr", "Jahr2")) %>% 
  # Nur die relevanten Spalten auswählen
  select(Bundesland, Jahr, Studiengang, m, f, Gesamt) %>%
  # Leere Zellen nach unten 'befüllen'
  fill(Jahr, Bundesland)

plot_data

# A tibble: 1,704 x 6
   Bundesland      Jahr  Studiengang                    m     f Gesamt
   <chr>           <chr> <chr>                      <dbl> <dbl>  <dbl>
 1 <NA>            1998  <NA>                          NA    NA     NA
 2 Baden-Württemb… 1998  <NA>                          NA    NA     NA
 3 Baden-Württemb… 1998  Gesundheitspädagogik          NA    NA     NA
 4 Baden-Württemb… 1998  Gesundheitswissenschaften…    NA    NA     NA
 5 Baden-Württemb… 1998  Nichtärztliche Heilberufe…    NA    NA     NA
 6 Baden-Württemb… 1998  Pflegewissenschaft/-manag…    NA    NA     NA
 7 Bayern          1998  <NA>                          NA    NA     NA
 8 Bayern          1998  Gesundheitspädagogik          NA    NA     NA
 9 Bayern          1998  Gesundheitswissenschaften…    NA    NA     NA
10 Bayern          1998  Nichtärztliche Heilberufe…    NA    NA     NA
# … with 1,694 more rows

Letztlich können auch noch die ehemaligen Überschriftszeilen gelöscht werden. Das ist einfach, da diese Zeilen eine Gemeinsamkeit haben: die Studiengangspalte ist auch leer. Danach können auch die leeren NA-Zeilen mit einer Null ersetzt werden, damit die Visualisierung einfacher wird.

plot_data <- plot_data %>% 
  # Nur Zeilen auswählem, die KEINE leere Studiengang-Spalte haben
  filter(!is.na(Studiengang)) %>% 
  # NA im gesamten Daten mit 0 ersetzen
  replace(is.na(.), 0)

plot_data

# A tibble: 1,344 x 6
   Bundesland      Jahr  Studiengang                    m     f Gesamt
   <chr>           <chr> <chr>                      <dbl> <dbl>  <dbl>
 1 Baden-Württemb… 1998  Gesundheitspädagogik           0     0      0
 2 Baden-Württemb… 1998  Gesundheitswissenschaften…     0     0      0
 3 Baden-Württemb… 1998  Nichtärztliche Heilberufe…     0     0      0
 4 Baden-Württemb… 1998  Pflegewissenschaft/-manag…     0     0      0
 5 Bayern          1998  Gesundheitspädagogik           0     0      0
 6 Bayern          1998  Gesundheitswissenschaften…     0     0      0
 7 Bayern          1998  Nichtärztliche Heilberufe…     0     0      0
 8 Bayern          1998  Pflegewissenschaft/-manag…     0     0      0
 9 Berlin          1998  Gesundheitspädagogik          61   186    247
10 Berlin          1998  Gesundheitswissenschaften…     0     0      0
# … with 1,334 more rows
…
