kuusisto.de: Eine Methode für 'reference searching' mit R und citecorp
…
Die für das Beispiel notwendigen Funktionen – oc_coci_cites() und oci_coci_refs() – aus dem citecorp-Paketen nehmen in der aktuellen Version leider keine Vektoren als Argument. Daher brauchen wir einen Befehl aus der guten alten apply-Familie, um die jeweiligen Funktion bei allen DOIs durchzuführen.

Funktion oc_coci_cites() wird mit sapply() bei allen Werten in der Spalte DOI durchgeführt und die Ergebnisse in Objekt namens cites gespeichert:

cites <- sapply(seq_len(nrow(studien)),
                function(i){oc_coci_cites(studien$DOI[i])}
                )

# Das Ergebnis ist eine Liste von data frames, binden wir sie zusammen:
cites <- bind_rows(cites)

# Generierte Daten anschauen:
cites

# A tibble: 91 x 7
   oci          timespan citing    creation author_sc journal_sc cited
   <chr>        <chr>    <chr>     <chr>    <chr>     <chr>      <chr>
 1 02001010101… P5Y      10.1111/… 2007-05  no        no         10.1…
 2 02001010101… P9Y      10.1111/… 2011-09… no        no         10.1…
 3 02001010101… P11Y     10.1111/… 2013-09… no        no         10.1…
 4 02001010102… P10Y     10.11124… 2012     no        no         10.1…
 5 02001010102… P11Y     10.11124… 2013-05  no        no         10.1…
 6 02001010707… P13Y     10.1177/… 2015-01… no        no         10.1…
 7 02001010707… P5Y      10.1177/… 2007-10  no        no         10.1…
 8 02001010806… P13Y     10.1186/… 2015-03… no        no         10.1…
 9 02004000405… P11Y     10.4045/… 2013     no        no         10.1…
10 02001010707… P14Y     10.1177/… 2016-07… no        no         10.1…
# … with 81 more rows
Sieht erst mal nicht schlecht aus! Ich werde an dieser Stelle den Inhalt der Daten nicht näher beschreiben, da wir auch hier eigentlich nur die DOIs der Studien für dieses Beispiel brauchen. Die für uns relevanten DOIs befinden sich in der Spalte citing.

Weitere Informationen über die angezeigten Daten sind auf der Webseite von COCI zu finden.

Backward citation tracking

Nun müssen wir lediglich alles noch mal wiederholen, aber in die “andere Richtung”. Das geht einfach mit der Funktion oc_coci_refs(). Wir müssen dafür nur die Funktion und den Namen des zu generienden Objektes in unserem Code ändern:

refs <- sapply(seq_len(nrow(studien)),
               function(i){oc_coci_refs(studien$DOI[i])}
               )
refs <- bind_rows(refs)
refs

# A tibble: 113 x 7
   oci         timespan citing creation author_sc journal_sc cited    
   <chr>       <chr>    <chr>  <chr>    <chr>     <chr>      <chr>    
 1 0200100000… P14Y     10.10… 2002     no        no         10.1001/…
 2 0200100000… P1Y      10.10… 2002     no        yes        10.1002/…
 3 0200100000… P8Y      10.10… 2002     no        yes        10.1002/…
 4 0200100000… P10Y     10.10… 2002     no        no         10.1007/…
 5 0200100000… P0Y      10.10… 2002     no        no         10.1016/…
 6 0200100000… P8Y      10.10… 2002     no        no         10.1016/…
 7 0200100000… P5Y      10.10… 2002     no        no         10.1016/…
 8 0200100000… P21Y     10.10… 2002     no        no         10.1017/…
 9 0200100000… P10Y     10.10… 2002     no        no         10.1017/…
10 0200100000… P7Y      10.10… 2002     no        no         10.1046/…
# … with 103 more rows

Obwohl das erzeugte data frame fast identisch zu cites aussieht, muss hierbei berücksichtigt werden, dass sich die für uns relevanten DOIs nicht mehr in der citing, sondern in der cited-Spalte befinden.

Duplikate entfernen

Da alle im ersten Schritt importierten Studien aus dem gleichen Themengebiet kommen, ist der Verdacht nah, dass wir nun einige Duplikate bei den Zitaten haben. Ein Artikel kann mehrere unserer importierten Studien zitieren oder andersherum. Diese Duplikaten könnten wir natürlich auch später in einem Literaturverwaltungsprogramm entfernen, aber es ist auch an dieser Stelle mit wenigen Code-Zeilen möglich — mit einer 100-prozentigen Treffsicherheit:

# Erst führen wie die DOIs beider Objekte zusammen:
cites_u_refs <- tibble(doi = c(cites$citing, refs$cited))

# Schauen wir uns die Daten an:
cites_u_refs

# A tibble: 204 x 1
   doi                              
   <chr>                            
 1 10.1111/j.1365-2702.2006.01806.x 
 2 10.1111/j.1365-2702.2011.03849.x 
 3 10.1111/j.1365-2702.2012.04102.x 
 4 10.11124/01938924-201210561-00001
 5 10.11124/01938924-201311050-00003
 6 10.1177/1049732314568321         
 7 10.1177/0269216307081129         
 8 10.1186/s12912-015-0069-7        
 9 10.4045/tidsskr.13.0202          
10 10.1177/1054773815601392         
# … with 194 more rows

# ...und entfernen DOIs, wenn mehrfach vorkommen:
cites_u_refs <- cites_u_refs[!duplicated(cites_u_refs$doi),]

# Jetzt sollen wir einige Zeilen weniger haben:
cites_u_refs

# A tibble: 178 x 1
   doi                              
   <chr>                            
 1 10.1111/j.1365-2702.2006.01806.x 
 2 10.1111/j.1365-2702.2011.03849.x 
 3 10.1111/j.1365-2702.2012.04102.x 
 4 10.11124/01938924-201210561-00001
 5 10.11124/01938924-201311050-00003
 6 10.1177/1049732314568321         
 7 10.1177/0269216307081129         
 8 10.1186/s12912-015-0069-7        
 9 10.4045/tidsskr.13.0202          
10 10.1177/1054773815601392         
# … with 168 more rows
…
